…
# Visualización de Datos

Para explorar la relación entre la antigüedad de la especie y el tamaño
del cráneo, se graficó **Time** (millones de años) frente a
**Cranial_Capacity** (cm<sup>3</sup>) para todas las observaciones. Se
distingue además si la especie **migró** fuera de África o no:

Primero vamos a ver las variables que vamos a seleccionar
representadolas en una tabla

    ## # A tibble: 12,000 × 2
    ##     Time Cranial_Capacity
    ##    <dbl>            <dbl>
    ##  1 6.04              145.
    ##  2 4.38              294.
    ##  3 3.75              265.
    ##  4 4.60              403.
    ##  5 3.61              679.
    ##  6 0.679            1155.
    ##  7 3.79              305.
    ##  8 7.55              258.
    ##  9 0.547            1156.
    ## 10 4.18              460.
    ## # ℹ 11,990 more rows
…
